{
    "KPackageStructure": "KSysguard/SensorFace",
    "KPlugin": {
        "Authors": [
            {
                "Email": "kde@broulik.de",
                "Name": "Kai Uwe Broulik",
                "Name[bg]": "Kai Uwe Broulik",
                "Name[ca@valencia]": "Kai Uwe Broulik",
                "Name[ca]": "Kai Uwe Broulik",
                "Name[cs]": "Kai Uwe Broulik",
                "Name[de]": "Kai Uwe Broulik",
                "Name[en_GB]": "Kai Uwe Broulik",
                "Name[eo]": "Kai Uwe Broulik",
                "Name[es]": "Kai Uwe Broulik",
                "Name[eu]": "Kai Uwe Broulik",
                "Name[fi]": "Kai Uwe Broulik",
                "Name[fr]": "Kai Uwe Broulik",
                "Name[gl]": "Kai Uwe Broulik",
                "Name[ia]": "Kai Uwe Broulik",
                "Name[it]": "Kai Uwe Broulik",
                "Name[ka]": "კაი უვე ბროულიკი",
                "Name[nl]": "Kai Uwe Broulik",
                "Name[nn]": "Kai Uwe Broulik",
                "Name[pl]": "Kai Uwe Broulik",
                "Name[sk]": "Kai Uwe Broulik",
                "Name[sl]": "Kai Uwe Broulik",
                "Name[tr]": "Kai Uwe Broulik",
                "Name[uk]": "Kai Uwe Broulik",
                "Name[x-test]": "xxKai Uwe Broulikxx",
                "Name[zh_CN]": "Kai Uwe Broulik"
            }
        ],
        "Icon": "office-chart-bar",
        "Id": "org.kde.ksysguard.barchart",
        "License": "LGPLv2+",
        "Name": "Bar Chart",
        "Name[bg]": "Графика с колони",
        "Name[ca@valencia]": "Diagrama de barres",
        "Name[ca]": "Diagrama de barres",
        "Name[cs]": "Sloupcový graf",
        "Name[de]": "Balkendiagramm",
        "Name[en_GB]": "Bar Chart",
        "Name[eo]": "Bastona Diagramo",
        "Name[es]": "Gráfico de barras",
        "Name[eu]": "Barra-diagrama",
        "Name[fi]": "Pylväskaavio",
        "Name[fr]": "Diagramme en barres",
        "Name[gl]": "Gráfico de barras",
        "Name[ia]": "Diagramma a barra",
        "Name[it]": "Grafico a barre",
        "Name[ka]": "პანელის გრაფიკები",
        "Name[nl]": "Balkgrafiek",
        "Name[nn]": "Søylediagram",
        "Name[pl]": "Wykres słupkowy",
        "Name[sk]": "Stĺpcový graf",
        "Name[sl]": "Stolpični diagram",
        "Name[tr]": "Çubuk Grafik",
        "Name[uk]": "Стовпчикова діаграма",
        "Name[x-test]": "xxBar Chartxx",
        "Name[zh_CN]": "柱状图",
        "Version": "1.0",
        "Website": "https://kde.org"
    },
    "X-KDE-ParentApp": "org.kde.plasmashell"
}
