{
    "KPackageStructure": "KSysguard/SensorFace",
    "KPlugin": {
        "Authors": [
            {
                "Email": "mart@kde.org",
                "Name": "Marco Martin",
                "Name[ar]": "Marco Martin",
                "Name[ast]": "Marco Martin",
                "Name[az]": "Marco Martin",
                "Name[bg]": "Marco Martin",
                "Name[ca@valencia]": "Marco Martin",
                "Name[ca]": "Marco Martin",
                "Name[cs]": "Marco Martin",
                "Name[de]": "Marco Martin",
                "Name[en_GB]": "Marco Martin",
                "Name[eo]": "Marco Martin",
                "Name[es]": "Marco Martin",
                "Name[et]": "Marco Martin",
                "Name[eu]": "Marco Martin",
                "Name[fi]": "Marco Martin",
                "Name[fr]": "Marco Martin",
                "Name[gl]": "Marco Martin",
                "Name[hu]": "Marco Martin",
                "Name[ia]": "Marco Martin",
                "Name[it]": "Marco Martin",
                "Name[ka]": "მაკრო მარტინი",
                "Name[ko]": "Marco Martin",
                "Name[lt]": "Marco Martin",
                "Name[nl]": "Marco Martin",
                "Name[nn]": "Marco Martin",
                "Name[pl]": "Marco Martin",
                "Name[pt]": "Marco Martin",
                "Name[pt_BR]": "Marco Martin",
                "Name[ro]": "Marco Martin",
                "Name[ru]": "Marco Martin",
                "Name[sk]": "Marco Martin",
                "Name[sl]": "Marco Martin",
                "Name[sv]": "Marco Martin",
                "Name[tr]": "Marco Martin",
                "Name[uk]": "Marco Martin",
                "Name[vi]": "Marco Martin",
                "Name[x-test]": "xxMarco Martinxx",
                "Name[zh_CN]": "Marco Martin"
            }
        ],
        "Icon": "view-list-text",
        "Id": "org.kde.ksysguard.horizontalbars",
        "License": "LGPLv2+",
        "Name": "Horizontal Bars",
        "Name[bg]": "Хоризонтални линии",
        "Name[ca@valencia]": "Barres horitzontals",
        "Name[ca]": "Barres horitzontals",
        "Name[cs]": "Vodorovné sloupce",
        "Name[de]": "Waagerechte Balken",
        "Name[en_GB]": "Horizontal Bars",
        "Name[eo]": "Horizontalaj Stangoj",
        "Name[es]": "Barras horizontales",
        "Name[eu]": "Barra horizontalak",
        "Name[fi]": "Vaakapylväät",
        "Name[fr]": "Barres horizontales",
        "Name[gl]": "Barras horizontais",
        "Name[ia]": "Barras Horizontal",
        "Name[it]": "Barre orizzontali",
        "Name[ka]": "ჰორიზონტალური პანელები",
        "Name[nl]": "Horizontale balken",
        "Name[nn]": "Vassrette søyler",
        "Name[pl]": "Słupki w poziomie",
        "Name[sk]": "Vodorovné stĺpce",
        "Name[sl]": "Vodoravni stolpci",
        "Name[tr]": "Yatay Çubuklar",
        "Name[uk]": "Горизонтальні смуги",
        "Name[x-test]": "xxHorizontal Barsxx",
        "Name[zh_CN]": "水平柱状图",
        "Version": "1.0",
        "Website": "https://kde.org"
    },
    "X-KDE-ParentApp": "org.kde.plasmashell"
}
